<?xml version="1.0" encoding="UTF-8"?>
<svg width="22px" height="20px" viewBox="0 0 22 20" version="1.1" xmlns="http://www.w3.org/2000/svg" xmlns:xlink="http://www.w3.org/1999/xlink">
    <!-- Generator: Sketch 42 (36781) - http://www.bohemiancoding.com/sketch -->
    <title>like-icon</title>
    <desc>Created with Sketch.</desc>
    <defs>
        <path d="M13.1815838,0.763936644 C14.0023051,0.283514455 14.8136848,0.0299582998 15.6143884,0.00326817816 C16.4144248,-0.0234219435 17.2051197,0.11336493 17.9858057,0.413628798 C18.7664918,0.713892666 19.4510934,1.14093461 20.0376088,1.69475464 C20.6247915,2.24857466 21.0985411,2.91916397 21.4588578,3.70652255 C21.8198417,4.49388114 22,5.31460238 22,6.16868627 C22,6.92935474 21.775803,7.71337706 21.3287434,8.52075324 C20.8816839,9.32812942 20.2551333,10.1588595 19.4470899,11.0129433 C18.6397137,11.8670272 11.6741534,19.3649405 11.6741534,19.3649405 C11.2964853,19.7714161 10.6803087,19.7664364 10.3081584,19.3649405 C10.3081584,19.3649405 3.35961906,11.8670272 2.55291013,11.0129433 C1.74553395,10.1588595 1.11764884,9.32812942 0.670589306,8.52075324 C0.222862516,7.71337706 0,6.92935474 0,6.16868627 C0,5.31460238 0.186830851,4.49388114 0.560492554,3.70652255 C0.93482151,2.91916397 1.42124898,2.24857466 2.02177671,1.69475464 C2.62230445,1.14093461 3.31958388,0.713892666 4.11361499,0.413628798 C4.90764611,0.11336493 5.70167723,-0.0234219435 6.49570835,0.00326817816 C7.28973947,0.0299582998 8.09044312,0.28685072 8.8978193,0.77394544 C9.70519547,1.26170741 10.4024749,1.95831959 10.9903248,2.86578372 C11.6302205,1.94497453 12.3615298,1.24435883 13.1815838,0.763936644 Z" id="path-1"></path>
        <mask id="mask-2" maskContentUnits="userSpaceOnUse" maskUnits="objectBoundingBox" x="0" y="0" width="22" height="19.6936906" fill="white">
            <use xlink:href="#path-1"></use>
        </mask>
    </defs>
    <g id="Symbols" stroke="none" stroke-width="1" fill="none" fill-rule="evenodd">
        <g id="like-icon" stroke-width="4" stroke="#40403B">
            <use mask="url(#mask-2)" xlink:href="#path-1"></use>
        </g>
    </g>
</svg>